Desafio07
…
--- Comando SQL gerado pelo dbplyr (show_query) ---
<SQL>
SELECT `AlbumId`, AVG(`Milliseconds`) AS `AvLen`, AVG(`UnitPrice`) AS `AvCost`
FROM `tracks`
GROUP BY `AlbumId`

--- Coletando os dados (collect) ---
[1] "Data Frame coletado ('mT'):"
# A tibble: 347 × 3
   AlbumId   AvLen AvCost
     <int>   <dbl>  <dbl>
 1       1 240042.   0.99
 2       2 342562    0.99
 3       3 286029.   0.99
 4       4 306657.   0.99
 5       5 294114.   0.99
 6       6 265456.   0.99
 7       7 270780.   0.99
 8       8 207638.   0.99
 9       9 333926.   0.99
10      10 280551.   0.99
# ℹ 337 more rows
…
